607_Project2A_DylanGold
…
We can also just group by year and country to combine all the energy types.

yearly_energy_total <- yearly_energy_data %>%
  group_by(year, country) %>%
  summarise(
    energy_total = sum(energy_yearly),
    .groups = "keep"
  )
yearly_energy_total

# A tibble: 968 × 3
# Groups:   year, country [968]
    year country          energy_total
   <dbl> <chr>                   <dbl>
 1  1900 Denmark                   0  
 2  1900 France                44849. 
 3  1900 Germany                  29.1
 4  1900 Great Britain             0  
 5  1900 Northern Ireland          0  
 6  1900 Sweden                    0  
 7  1900 Switzerland               0  
 8  1900 United Kingdom            0  
 9  1901 Denmark                   0  
10  1901 France                45211. 
# ℹ 958 more rows
…
