607_Project2B_DylanGold
…
[1] "Birth rate, crude (per 1,000 people)"

indicator_codes

[1] "SP.DYN.CBRT.IN"

There is only one value for both of these columns, we can just drop these columns they are useless.

birthrates <- birthrates[-c(3:4)]
birthrates

# A tibble: 266 × 65
   `Country Name`       `Country Code` `1960` `1961` `1962` `1963` `1964` `1965`
   <chr>                <chr>           <dbl>  <dbl>  <dbl>  <dbl>  <dbl>  <dbl>
 1 Aruba                ABW              33.9   32.8   31.6   30.4   29.1   27.9
 2 Africa Eastern and … AFE              47.4   47.5   47.6   47.6   47.6   47.7
 3 Afghanistan          AFG              50.3   50.4   50.6   50.7   50.8   50.9
 4 Africa Western and … AFW              47.3   47.4   47.5   47.5   47.5   47.5
 5 Angola               AGO              51.0   51.3   51.3   51.3   51.3   51.3
 6 Albania              ALB              41.1   40.3   39.2   38.1   36.8   35.4
 7 Andorra              AND              NA     NA     NA     NA     NA     NA  
 8 Arab World           ARB              47.6   47.6   47.9   47.6   47.3   46.9
 9 United Arab Emirates ARE              41.8   41.4   41.1   40.6   40.0   39.4
10 Argentina            ARG              23.8   23.6   23.8   23.7   23.4   23.3
# ℹ 256 more rows
# ℹ 57 more variables: `1966` <dbl>, `1967` <dbl>, `1968` <dbl>, `1969` <dbl>,
#   `1970` <dbl>, `1971` <dbl>, `1972` <dbl>, `1973` <dbl>, `1974` <dbl>,
#   `1975` <dbl>, `1976` <dbl>, `1977` <dbl>, `1978` <dbl>, `1979` <dbl>,
#   `1980` <dbl>, `1981` <dbl>, `1982` <dbl>, `1983` <dbl>, `1984` <dbl>,
#   `1985` <dbl>, `1986` <dbl>, `1987` <dbl>, `1988` <dbl>, `1989` <dbl>,
#   `1990` <dbl>, `1991` <dbl>, `1992` <dbl>, `1993` <dbl>, `1994` <dbl>, …
…
We can see from the head of the data frame that the years went from columns to individual rows. We can also check to see if we have NA values in our dataframe.

colSums(is.na(birthrates_longer))

      Country Name       Country Code               year birthrate_per_1000 
                 0                  0                  0                721 

There are NA values, lets display these values.

na_birthrates <- birthrates_longer %>%
  filter(is.na(birthrate_per_1000))
na_birthrates 

# A tibble: 721 × 4
   `Country Name`              `Country Code`  year birthrate_per_1000
   <chr>                       <chr>          <dbl>              <dbl>
 1 Aruba                       ABW             2022                 NA
 2 Africa Eastern and Southern AFE             2022                 NA
 3 Afghanistan                 AFG             2022                 NA
 4 Africa Western and Central  AFW             2022                 NA
 5 Angola                      AGO             2022                 NA
 6 Albania                     ALB             2022                 NA
 7 Andorra                     AND             1960                 NA
 8 Andorra                     AND             1961                 NA
 9 Andorra                     AND             1962                 NA
10 Andorra                     AND             1963                 NA
# ℹ 711 more rows
…
